{
    "images": [
        {
            "src":"http://www.lgorithms.com/images/calm-summer-gif.gif?b91b38",
            "score": 1752,
            "views": 12
        },
        {
            "src":"http://www.lgorithms.com/images/animated-street-art.gif",
            "score": 66,
            "views": 22
        },
        {
            "src":"http://www.lgorithms.com/images/disco-kitty-animated-gif-arts.gif",
            "score": 88,
            "views": 2112
        },
        {
            "src":"http://www.lgorithms.com/images/photography-gif-art.gif?b91b38",
            "score": 57,
            "views": 44
        },
        {
            "src":"http://www.lgorithms.com/images/newspaper-flip-animation-photo-art.gif?b91b38",
            "score": 56,
            "views": 232
        },
        {
            "src":"http://www.lgorithms.com/images/cinemagraph-girl-hair-art.gif?b91b38",
            "score": 77,
            "views": 11
        },
        {
            "src":"http://www.lgorithms.com/images/leg-move-photograph-animation-art.gif?b91b38",
            "score": 12,
            "views": 5
        },
        {
            "src":"http://www.lgorithms.com/images/creepy-eye-movement-cinemagraph.gif?b91b38",
            "score": 67,
            "views": 26
        },
        {
            "src":"http://www.lgorithms.com/images/cinemagraph-dancing-art.gif?b91b38",
            "score": 99,
            "views": 12
        },
        {
            "src":"http://www.lgorithms.com/images/a_little_over_8_years_ago___pt_1_by_clayrodery-d507v7h.gif?b91b38",
            "score": 63,
            "views": 11
        },
        {
            "src":"http://www.lgorithms.com/images/classic-cinemagraph-hair-clothing-moving-guy-photo-art.gif?b91b38",
            "score": 72,
            "views": 8
        },
        {
            "src":"http://www.lgorithms.com/images/awesome-still-photo-earring-animation-art-gif.gif",
            "score": 71,
            "views": 242
        }
    ]
}
